[gd_scene load_steps=8 format=2]

[ext_resource path="res://Spiral.tscn" type="PackedScene" id=1]

[sub_resource type="Environment" id=1]
background_mode = 1
background_color = Color( 0.231373, 0.117647, 0.117647, 1 )
glow_levels/1 = true
glow_levels/5 = false
glow_intensity = 5.24
glow_strength = 1.08
glow_bloom = 0.09
adjustment_enabled = true
adjustment_contrast = 1.08
adjustment_saturation = 1.82

[sub_resource type="SpatialMaterial" id=2]
flags_transparent = true
params_cull_mode = 2
params_billboard_mode = 2
albedo_color = Color( 0, 0, 0, 0.403922 )

[sub_resource type="PlaneMesh" id=3]
material = SubResource( 2 )
size = Vector2( 10, 10 )

[sub_resource type="QuadMesh" id=4]
size = Vector2( 0.2, 0.2 )

[sub_resource type="Shader" id=5]
code = "shader_type spatial;
render_mode unshaded;

uniform vec4 color : hint_color = vec4(1.0f,1.0f,1.0f,1.0f);
uniform float fill_opacity : hint_range(0.0f,1.0f) = 0.0f;
uniform float border_width : hint_range(0.1f, 0.5f) = 0.1f;

void fragment() {
	ALBEDO = color.rgb;
	
	if (
		UV.x < 0.0f + border_width || 
		UV.x > 1.0f - border_width || 
		UV.y < 0.0f + border_width || 
		UV.y > 1.0f - border_width
	) {
		ALPHA = color.a;
	}
	else {
		ALPHA = color.a * fill_opacity;
	}
}"

[sub_resource type="ShaderMaterial" id=6]
shader = SubResource( 5 )
shader_param/color = Color( 1, 0.447059, 0, 1 )
shader_param/fill_opacity = 0.0
shader_param/border_width = 0.088

[node name="WorldEnvironment" type="WorldEnvironment"]
environment = SubResource( 1 )

[node name="Camera" type="Camera" parent="."]
transform = Transform( 1, 0, 0, 0, 1, 0, 0, 0, 1, 0, 3, 5 )
projection = 1
size = 6.2

[node name="spiral" parent="." instance=ExtResource( 1 )]

[node name="CSGMesh" type="CSGMesh" parent="."]
transform = Transform( -4.37114e-08, -1, 0, 1, -4.37114e-08, 0, 0, 0, 1, 0, 0, 0 )
visible = false
mesh = SubResource( 3 )

[node name="OutlineTest" type="MeshInstance" parent="."]
transform = Transform( 1, 0, 0, 0, 1, 0, 0, 0, 1, 0.0280681, 2.16076, -0.0395644 )
mesh = SubResource( 4 )
material/0 = SubResource( 6 )
